﻿ Warning:
The JKS keystore uses a proprietary format. It is recommended to migrate to PKCS12 which is an industry standard format using "keytool -importkeystore -srckeystore C:/Users/f.reyes948/.android/debug.keystore -destkeystore C:/Users/f.reyes948/.android/debug.keystore -deststoretype pkcs12".

Feature: Fillup feature
  Scenario: I can enter fillup information               # features/fillup.feature:3
    Given I enter "1200" into input field number 1       # calabash-android-0.9.8/lib/calabash-android/steps/enter_text_steps.rb:9
    And I enter "4" into input field number 2            # calabash-android-0.9.8/lib/calabash-android/steps/enter_text_steps.rb:9
    And I enter "1" into input field number 3            # calabash-android-0.9.8/lib/calabash-android/steps/enter_text_steps.rb:9
      #And I set the date to "01-01-2000" on DatePicker with index 1
    And I enter "First fillup" into input field number 4 # calabash-android-0.9.8/lib/calabash-android/steps/enter_text_steps.rb:9
    When I press the "Save Fillup" button                # calabash-android-0.9.8/lib/calabash-android/steps/press_button_steps.rb:1
Failing Scenarios:
cucumber features/fillup.feature:3 # Scenario: I can enter fillup information
1 scenario (1 failed)
6 steps (2 failed, 4 passed)
3m38.995s
No test server found for this combination of app and calabash version. Recreating test server.
Done signing the test server. Moved it to test_servers/3044c49d23401b2eca2f2206b86d10fb_0.9.8.apk
 *** WARNING: You must use ANSICON 1.31 or higher (https://github.com/adoxa/ansicon/) to get coloured output on Windows
Warning:
The JKS keystore uses a proprietary format. It is recommended to migrate to PKCS12 which is an industry standard format using "keytool -importkeystore -srckeystore C:/Users/f.reyes948/.android/debug.keystore -destkeystore C:/Users/f.reyes948/.android/debug.keystore -deststoretype pkcs12".
*** WARNING: You must use ANSICON 1.31 or higher (https://github.com/adoxa/ansicon/) to get coloured output on Windows

Termina ejecución BDT para el mutante com.evancharlton.mileage-mutant4269
